// Jest Snapshot v1, https://goo.gl/fbAQLP

exports[`protractor-html-validate should report error if page is invalid when test is finished 1`] = `
html-validate: After test finished:
<red>error</color>: <bold><button> is missing recommended "type" attribute</intensity> <dim>(no-implicit-button-type)</intensity> at <green>http://localhost/valid.html:14:2</color>:
  12 | <button id="toggle-invalid" type="button" ng-click="showInvalid = !showInvalid" ng-init="showInvalid = false">Show invalid</button>
  13 | <!-- ngIf: showInvalid --><div ng-if="showInvalid" class="ng-scope">
> 14 | <button><p>Invalid permitted permitted content</p></button>
     |  ^^^^^^
  15 | </div><!-- end ngIf: showInvalid -->
  16 | </test-component>
  17 | 		<hidden-component class="ng-isolate-scope"><div style="display: none;">hidden text</div></hidden-component>
<bold>Details:</intensity> https://html-validate.org/rules/no-implicit-button-type.html


<red>error</color>: <bold><p> element is not permitted as content under <button></intensity> <dim>(element-permitted-content)</intensity> at <green>http://localhost/valid.html:14:10</color>:
  12 | <button id="toggle-invalid" type="button" ng-click="showInvalid = !showInvalid" ng-init="showInvalid = false">Show invalid</button>
  13 | <!-- ngIf: showInvalid --><div ng-if="showInvalid" class="ng-scope">
> 14 | <button><p>Invalid permitted permitted content</p></button>
     |          ^
  15 | </div><!-- end ngIf: showInvalid -->
  16 | </test-component>
  17 | 		<hidden-component class="ng-isolate-scope"><div style="display: none;">hidden text</div></hidden-component>
<bold>Details:</intensity> https://html-validate.org/rules/element-permitted-content.html


<red><bold>2 errors found.</color></intensity>

`;

exports[`protractor-html-validate should report error when invalid page is loaded 1`] = `
html-validate: When loading page:
<red>error</color>: <bold><input> element does not have a <label></intensity> <dim>(input-missing-label)</intensity> at <green>http://localhost/invalid.html:8:4</color>:
   6 | 		<h1>Invalid template</h1>
   7 |
>  8 | 		<input type="text" id="attr-test" readonly="" required="" disabled="disabled">
     | 		 ^^^^^
   9 |
  10 | 		<invalid-component class="ng-isolate-scope"><button type="button"><p>Invalid permitted permitted content</p></button></invalid-component>
  11 |
<bold>Details:</intensity> https://html-validate.org/rules/input-missing-label.html


<red>error</color>: <bold><p> element is not permitted as content under <button></intensity> <dim>(element-permitted-content)</intensity> at <green>http://localhost/invalid.html:10:70</color>:
   8 | 		<input type="text" id="attr-test" readonly="" required="" disabled="disabled">
   9 |
> 10 | 		<invalid-component class="ng-isolate-scope"><button type="button"><p>Invalid permitted permitted content</p></button></invalid-component>
     | 		                                                                   ^
  11 |
  12 | 		<script src="angular.min.js"></script>
  13 | 		<script src="app.js"></script>
<bold>Details:</intensity> https://html-validate.org/rules/element-permitted-content.html


<red><bold>2 errors found.</color></intensity>

`;

exports[`protractor-html-validate should report error when invalid page is loaded 2`] = `
html-validate: After test finished:
<red>error</color>: <bold><input> element does not have a <label></intensity> <dim>(input-missing-label)</intensity> at <green>http://localhost/invalid.html:8:4</color>:
   6 | 		<h1>Invalid template</h1>
   7 |
>  8 | 		<input type="text" id="attr-test" readonly="" required="" disabled="disabled">
     | 		 ^^^^^
   9 |
  10 | 		<invalid-component class="ng-isolate-scope"><button type="button"><p>Invalid permitted permitted content</p></button></invalid-component>
  11 |
<bold>Details:</intensity> https://html-validate.org/rules/input-missing-label.html


<red>error</color>: <bold><p> element is not permitted as content under <button></intensity> <dim>(element-permitted-content)</intensity> at <green>http://localhost/invalid.html:10:70</color>:
   8 | 		<input type="text" id="attr-test" readonly="" required="" disabled="disabled">
   9 |
> 10 | 		<invalid-component class="ng-isolate-scope"><button type="button"><p>Invalid permitted permitted content</p></button></invalid-component>
     | 		                                                                   ^
  11 |
  12 | 		<script src="angular.min.js"></script>
  13 | 		<script src="app.js"></script>
<bold>Details:</intensity> https://html-validate.org/rules/element-permitted-content.html


<red><bold>2 errors found.</color></intensity>

`;

exports[`protractor-html-validate should support manual validation 1`] = `
html-validate:
<red>error</color>: <bold><button> is missing recommended "type" attribute</intensity> <dim>(no-implicit-button-type)</intensity> at <green>http://localhost/valid.html:14:2</color>:
  12 | <button id="toggle-invalid" type="button" ng-click="showInvalid = !showInvalid" ng-init="showInvalid = false">Show invalid</button>
  13 | <!-- ngIf: showInvalid --><div ng-if="showInvalid" class="ng-scope">
> 14 | <button><p>Invalid permitted permitted content</p></button>
     |  ^^^^^^
  15 | </div><!-- end ngIf: showInvalid -->
  16 | </test-component>
  17 | 		<hidden-component class="ng-isolate-scope"><div style="display: none;">hidden text</div></hidden-component>
<bold>Details:</intensity> https://html-validate.org/rules/no-implicit-button-type.html


<red>error</color>: <bold><p> element is not permitted as content under <button></intensity> <dim>(element-permitted-content)</intensity> at <green>http://localhost/valid.html:14:10</color>:
  12 | <button id="toggle-invalid" type="button" ng-click="showInvalid = !showInvalid" ng-init="showInvalid = false">Show invalid</button>
  13 | <!-- ngIf: showInvalid --><div ng-if="showInvalid" class="ng-scope">
> 14 | <button><p>Invalid permitted permitted content</p></button>
     |          ^
  15 | </div><!-- end ngIf: showInvalid -->
  16 | </test-component>
  17 | 		<hidden-component class="ng-isolate-scope"><div style="display: none;">hidden text</div></hidden-component>
<bold>Details:</intensity> https://html-validate.org/rules/element-permitted-content.html


<red><bold>2 errors found.</color></intensity>

`;
