// Jest Snapshot v1, https://goo.gl/fbAQLP

exports[`protractor-html-validate should report error if page is invalid when test is finished 1`] = `
html-validate: After test finished:
<red>error</>: <bold><button> is missing required "type" attribute</> <dim>(no-implicit-button-type)</> at <green>http://localhost/valid.html:14:2</>:
  12 | <button id="toggle-invalid" type="button" ng-click="showInvalid = !showInvalid" ng-init="showInvalid = false" style="">Show invalid</button>
  13 | <!-- ngIf: showInvalid --><div ng-if="showInvalid" class="ng-scope">
> 14 | <button><p>Invalid permitted permitted content</p></button>
     |  ^^^^^^
  15 | </div><!-- end ngIf: showInvalid -->
  16 | </test-component>
  17 | 		<hidden-component class="ng-isolate-scope"><div style="display: none;">hidden text</div></hidden-component>


<red>error</>: <bold>Element <p> is not permitted as content in <button></> <dim>(element-permitted-content)</> at <green>http://localhost/valid.html:14:10</>:
  12 | <button id="toggle-invalid" type="button" ng-click="showInvalid = !showInvalid" ng-init="showInvalid = false" style="">Show invalid</button>
  13 | <!-- ngIf: showInvalid --><div ng-if="showInvalid" class="ng-scope">
> 14 | <button><p>Invalid permitted permitted content</p></button>
     |          ^
  15 | </div><!-- end ngIf: showInvalid -->
  16 | </test-component>
  17 | 		<hidden-component class="ng-isolate-scope"><div style="display: none;">hidden text</div></hidden-component>


<red><bold>2 errors found.</></>

`;

exports[`protractor-html-validate should report error when invalid page is loaded 1`] = `
html-validate: When loading page:
<red>error</>: <bold><input> element does not have a <label></> <dim>(input-missing-label)</> at <green>http://localhost/invalid.html:8:4</>:
   6 | 		<h1>Invalid template</h1>
   7 |
>  8 | 		<input type="text" id="attr-test" readonly="" required="" disabled="disabled">
     | 		 ^^^^^
   9 |
  10 | 		<invalid-component class="ng-isolate-scope"><button type="button"><p>Invalid permitted permitted content</p></button></invalid-component>
  11 |


<red>error</>: <bold>Element <p> is not permitted as content in <button></> <dim>(element-permitted-content)</> at <green>http://localhost/invalid.html:10:70</>:
   8 | 		<input type="text" id="attr-test" readonly="" required="" disabled="disabled">
   9 |
> 10 | 		<invalid-component class="ng-isolate-scope"><button type="button"><p>Invalid permitted permitted content</p></button></invalid-component>
     | 		                                                                   ^
  11 |
  12 | 		<script src="angular.min.js"></script>
  13 | 		<script src="app.js"></script>


<red><bold>2 errors found.</></>

`;

exports[`protractor-html-validate should report error when invalid page is loaded 2`] = `
html-validate: After test finished:
<red>error</>: <bold><input> element does not have a <label></> <dim>(input-missing-label)</> at <green>http://localhost/invalid.html:8:4</>:
   6 | 		<h1>Invalid template</h1>
   7 |
>  8 | 		<input type="text" id="attr-test" readonly="" required="" disabled="disabled">
     | 		 ^^^^^
   9 |
  10 | 		<invalid-component class="ng-isolate-scope"><button type="button"><p>Invalid permitted permitted content</p></button></invalid-component>
  11 |


<red>error</>: <bold>Element <p> is not permitted as content in <button></> <dim>(element-permitted-content)</> at <green>http://localhost/invalid.html:10:70</>:
   8 | 		<input type="text" id="attr-test" readonly="" required="" disabled="disabled">
   9 |
> 10 | 		<invalid-component class="ng-isolate-scope"><button type="button"><p>Invalid permitted permitted content</p></button></invalid-component>
     | 		                                                                   ^
  11 |
  12 | 		<script src="angular.min.js"></script>
  13 | 		<script src="app.js"></script>


<red><bold>2 errors found.</></>

`;

exports[`protractor-html-validate should support manual validation 1`] = `
html-validate:
<red>error</>: <bold><button> is missing required "type" attribute</> <dim>(no-implicit-button-type)</> at <green>http://localhost/valid.html:14:2</>:
  12 | <button id="toggle-invalid" type="button" ng-click="showInvalid = !showInvalid" ng-init="showInvalid = false" style="">Show invalid</button>
  13 | <!-- ngIf: showInvalid --><div ng-if="showInvalid" class="ng-scope">
> 14 | <button><p>Invalid permitted permitted content</p></button>
     |  ^^^^^^
  15 | </div><!-- end ngIf: showInvalid -->
  16 | </test-component>
  17 | 		<hidden-component class="ng-isolate-scope"><div style="display: none;">hidden text</div></hidden-component>


<red>error</>: <bold>Element <p> is not permitted as content in <button></> <dim>(element-permitted-content)</> at <green>http://localhost/valid.html:14:10</>:
  12 | <button id="toggle-invalid" type="button" ng-click="showInvalid = !showInvalid" ng-init="showInvalid = false" style="">Show invalid</button>
  13 | <!-- ngIf: showInvalid --><div ng-if="showInvalid" class="ng-scope">
> 14 | <button><p>Invalid permitted permitted content</p></button>
     |          ^
  15 | </div><!-- end ngIf: showInvalid -->
  16 | </test-component>
  17 | 		<hidden-component class="ng-isolate-scope"><div style="display: none;">hidden text</div></hidden-component>


<red><bold>2 errors found.</></>

`;
